cpu/cpu.vcd
$date
	Wed May  6 17:11:12 2020
$end
$version
	Icarus Verilog
$end
$timescale
	1ps
$end
$scope module main $end
$var wire 1 ! a_read_ops $end
$var wire 1 " b_read_ops $end
$var wire 1 # bp_wen $end
$var wire 16 $ bp_write_addr [15:0] $end
$var wire 16 % bp_write_branch [15:0] $end
$var wire 1 & bp_write_taken $end
$var wire 1 ' flush $end
$var wire 1 ( isJns $end
$var wire 1 ) isJnz $end
$var wire 1 * isJs $end
$var wire 1 + isJz $end
$var wire 1 , isLd $end
$var wire 1 - isSt $end
$var wire 1 . load_ex $end
$var wire 16 / mem_addr [15:0] $end
$var wire 1 0 mem_hazard $end
$var wire 16 1 mem_read_addr [15:0] $end
$var wire 1 2 misaligned $end
$var wire 1 3 mispredict $end
$var wire 1 4 mispredict_nj $end
$var wire 3 5 next_stall_d [2:0] $end
$var wire 3 6 next_stall_f1 [2:0] $end
$var wire 3 7 next_stall_f2 [2:0] $end
$var wire 1 8 raw_hazard_a $end
$var wire 1 9 raw_hazard_b $end
$var wire 1 : raw_hazard_t $end
$var wire 1 ; retired $end
$var wire 16 < saddr [15:0] $end
$var wire 1 = smc $end
$var wire 1 > store_ex $end
$var wire 1 ? t_read_ops $end
$var wire 1 @ t_write_ops $end
$var wire 1 A temp_writeen $end
$var wire 1 B updatesRegs_w $end
$var wire 1 C writeen $end
$var wire 4 D xop [3:0] $end
$var wire 4 E write_rt [3:0] $end
$var wire 4 F used_write_rt [3:0] $end
$var wire 1 G used_t_write_ops $end
$var wire 16 H used_regy [15:0] $end
$var wire 16 I used_regx [15:0] $end
$var wire 16 J used_out [15:0] $end
$var wire 16 K used_ins [15:0] $end
$var wire 1 L updatesRegs $end
$var wire 16 M temp_sdata [15:0] $end
$var wire 16 N temp_saddr [15:0] $end
$var wire 16 O temp_regy [15:0] $end
$var wire 16 P temp_regx [15:0] $end
$var wire 16 Q temp_laddr [15:0] $end
$var wire 16 R sdata_ex [15:0] $end
$var wire 16 S sdata [15:0] $end
$var wire 16 T saddr_ex [15:0] $end
$var wire 16 U regy [15:0] $end
$var wire 16 V regx [15:0] $end
$var wire 4 W read_rt [3:0] $end
$var wire 4 X read_rb [3:0] $end
$var wire 4 Y read_ra [3:0] $end
$var wire 2 Z raw_hazard [1:0] $end
$var wire 1 [ pred_valid $end
$var wire 16 \ pred_target [15:0] $end
$var wire 1 ] pred_taken $end
$var wire 4 ^ opcode [3:0] $end
$var wire 3 _ next_stall_e [2:0] $end
$var wire 3 ` next_mis_st_cnt [2:0] $end
$var wire 2 a mem_hazard_stall [1:0] $end
$var wire 16 b mem_data [15:0] $end
$var wire 16 c ldata [15:0] $end
$var wire 16 d laddr_ex [15:0] $end
$var wire 16 e laddr [15:0] $end
$var wire 16 f jump_addr [15:0] $end
$var wire 1 g isSub $end
$var wire 1 h isMovl $end
$var wire 1 i isMovh $end
$var wire 1 j isDefined $end
$var wire 16 k ins [15:0] $end
$var wire 16 l forward_regy [15:0] $end
$var wire 16 m forward_regx [15:0] $end
$var wire 16 n faddr [15:0] $end
$var wire 16 o datat [15:0] $end
$var wire 1 p clk $end
$var wire 4 q addy [3:0] $end
$var wire 4 r addx [3:0] $end
$var wire 4 s addt [3:0] $end
$var reg 1 t dont_write_back $end
$var reg 16 u faddr_f1 [15:0] $end
$var reg 16 v faddr_f2 [15:0] $end
$var reg 1 w flush_wb $end
$var reg 1 x halt $end
$var reg 8 y i [7:0] $end
$var reg 1 z isDefined_d $end
$var reg 1 { isDefined_e $end
$var reg 1 | isDefined_w $end
$var reg 1 } isJns_d $end
$var reg 1 ~ isJns_e $end
$var reg 1 !" isJnz_d $end
$var reg 1 "" isJnz_e $end
$var reg 1 #" isJs_d $end
$var reg 1 $" isJs_e $end
$var reg 1 %" isJumping $end
$var reg 1 &" isJz_d $end
$var reg 1 '" isJz_e $end
$var reg 1 (" isLd_d $end
$var reg 1 )" isLd_e $end
$var reg 1 *" isMovh_d $end
$var reg 1 +" isMovh_e $end
$var reg 1 ," isMovl_d $end
$var reg 1 -" isMovl_e $end
$var reg 1 ." isSt_d $end
$var reg 1 /" isSt_e $end
$var reg 1 0" isSub_d $end
$var reg 1 1" isSub_e $end
$var reg 3 2" mis_st_cnt [2:0] $end
$var reg 1 3" misaligned_e $end
$var reg 16 4" out [15:0] $end
$var reg 16 5" pc [15:0] $end
$var reg 16 6" pc_d [15:0] $end
$var reg 16 7" pc_e [15:0] $end
$var reg 16 8" pc_w [15:0] $end
$var reg 16 9" pred_pc_d [15:0] $end
$var reg 16 :" pred_pc_e [15:0] $end
$var reg 16 ;" pred_pc_f1 [15:0] $end
$var reg 16 <" pred_pc_f2 [15:0] $end
$var reg 1 =" pred_taken_d $end
$var reg 1 >" pred_taken_e $end
$var reg 1 ?" pred_taken_f1 $end
$var reg 1 @" pred_taken_f2 $end
$var reg 1 A" pred_valid_d $end
$var reg 1 B" pred_valid_e $end
$var reg 1 C" pred_valid_f1 $end
$var reg 1 D" pred_valid_f2 $end
$var reg 4 E" prev_addx [3:0] $end
$var reg 4 F" prev_addy [3:0] $end
$var reg 16 G" prev_laddr [15:0] $end
$var reg 16 H" prev_ldata [15:0] $end
$var reg 1 I" prev_mem_hazard $end
$var reg 1 J" prev_misaligned $end
$var reg 1 K" prev_prev_laddr $end
$var reg 1 L" prev_prev_memhazard $end
$var reg 1 M" prev_prev_misaligned $end
$var reg 2 N" prev_raw_hazard [1:0] $end
$var reg 4 O" ra [3:0] $end
$var reg 1 P" raw_hazard_a_d $end
$var reg 1 Q" raw_hazard_b_d $end
$var reg 1 R" raw_hazard_t_d $end
$var reg 4 S" rb [3:0] $end
$var reg 4 T" rt [3:0] $end
$var reg 4 U" rt_e [3:0] $end
$var reg 16 V" saddr_e [15:0] $end
$var reg 16 W" saved_faddr [15:0] $end
$var reg 16 X" saved_ins [15:0] $end
$var reg 16 Y" saved_regx [15:0] $end
$var reg 16 Z" saved_regy [15:0] $end
$var reg 1 [" saved_t_write_ops $end
$var reg 4 \" saved_write_rt [3:0] $end
$var reg 3 ]" stall_d [2:0] $end
$var reg 3 ^" stall_e [2:0] $end
$var reg 3 _" stall_f1 [2:0] $end
$var reg 3 `" stall_f2 [2:0] $end
$var reg 1 a" t_write_ops_d $end
$var reg 1 b" updatesRegs_d $end
$var reg 1 c" updatesRegs_e $end
$var reg 16 d" used_regx_e [15:0] $end
$var reg 1 e" valid_d $end
$var reg 1 f" valid_e $end
$var reg 1 g" valid_f1 $end
$var reg 1 h" valid_f1_ $end
$var reg 1 i" valid_f2 $end
$var reg 16 j" vt [15:0] $end
$var reg 4 k" write_rt_d [3:0] $end
$scope module branch $end
$var wire 16 l" branch [15:0] $end
$var wire 1 & branch_taken $end
$var wire 1 m" diff_target $end
$var wire 16 n" hist_addr [15:0] $end
$var wire 16 o" pc [15:0] $end
$var wire 1 ] taken $end
$var wire 1 [ valid $end
$var wire 1 # wen $end
$var wire 10 p" write_index [9:0] $end
$var wire 2 q" write_history [1:0] $end
$var wire 16 r" target [15:0] $end
$var wire 10 s" hash_index [9:0] $end
$var wire 1 p clk $end
$var reg 1024 t" branch_valid [1023:0] $end
$var reg 16 u" prev_pc [15:0] $end
$var reg 2 v" read_history [1:0] $end
$var reg 5 w" read_tag [4:0] $end
$var reg 16 x" read_target [15:0] $end
$var reg 1 y" read_valid $end
$upscope $end
$scope module c0 $end
$var wire 1 p clk $end
$var reg 1 p theClock $end
$upscope $end
$scope module ctr $end
$var wire 1 p clk $end
$var wire 1 x isHalt $end
$var reg 32 z" count [31:0] $end
$upscope $end
$scope module mem $end
$var wire 1 p clk $end
$var wire 15 {" raddr0_ [15:1] $end
$var wire 15 |" raddr1_ [15:1] $end
$var wire 16 }" rdata0_ [15:0] $end
$var wire 16 ~" rdata1_ [15:0] $end
$var wire 15 !# waddr [15:1] $end
$var wire 16 "# wdata [15:0] $end
$var wire 1 A wen $end
$var reg 15 ## raddr0 [15:1] $end
$var reg 15 $# raddr1 [15:1] $end
$var reg 16 %# rdata0 [15:0] $end
$var reg 16 &# rdata1 [15:0] $end
$upscope $end
$scope module regs $end
$var wire 1 p clk $end
$var wire 4 '# raddr0_ [3:0] $end
$var wire 4 (# raddr1_ [3:0] $end
$var wire 16 )# rdata0 [15:0] $end
$var wire 16 *# rdata1 [15:0] $end
$var wire 4 +# waddr [3:0] $end
$var wire 16 ,# wdata [15:0] $end
$var wire 1 B wen $end
$var reg 4 -# raddr0 [3:0] $end
$var reg 4 .# raddr1 [3:0] $end
$upscope $end
$upscope $end
$enddefinitions $end
#0
$dumpvars
bx .#
bx -#
bx ,#
bx +#
bx *#
bx )#
bx (#
bx '#
bx &#
bx %#
bx $#
bx ##
bx "#
bx !#
bx ~"
bx }"
bx |"
b0 {"
b0 z"
0y"
bx x"
bx w"
bx v"
bx u"
b0 t"
b0 s"
bx r"
bx q"
bx p"
b0 o"
bx n"
xm"
bx l"
bx k"
bx j"
0i"
1h"
0g"
0f"
0e"
bx d"
xc"
xb"
xa"
b0 `"
b0 _"
b0 ^"
b0 ]"
bx \"
x["
bx Z"
bx Y"
bx X"
bx W"
bx V"
bx U"
bx T"
bx S"
xR"
xQ"
xP"
bx O"
b0 N"
xM"
xL"
xK"
xJ"
xI"
bx H"
bx G"
bx F"
bx E"
xD"
xC"
xB"
xA"
x@"
x?"
x>"
x="
bx <"
bx ;"
bx :"
bx 9"
bx 8"
bx 7"
bx 6"
b0 5"
bx 4"
x3"
b0 2"
x1"
x0"
x/"
x."
x-"
x,"
x+"
x*"
x)"
x("
x'"
x&"
x%"
x$"
x#"
x""
x!"
x~
x}
x|
x{
xz
bx y
0x
0w
bx v
bx u
0t
bx s
bx r
bx q
1p
bx o
b0 n
bx m
bx l
bx k
0j
xi
xh
xg
bx f
bx e
bx d
bx c
bx b
b10 a
b0 `
b0 _
bx ^
0]
bx \
0[
b0 Z
bx Y
bx X
bx W
bx V
bx U
bx T
bx S
bx R
bx Q
bx P
bx O
bx N
bx M
xL
bx K
bx J
bx I
bx H
xG
bx F
bx E
bx D
0C
0B
0A
x@
x?
0>
0=
bx <
0;
0:
09
08
b0 7
b0 6
b0 5
04
03
02
bx 1
00
bx /
0.
x-
x,
x+
x*
x)
x(
0'
x&
bx %
bx $
0#
x"
x!
$end
#500
0p
#1000
b1 {"
b1 s"
b10 n
b10 o"
b10 \
b10 r"
b1 z"
b0 u"
b0 ##
b0 u
0?"
0C"
1g"
b0 W"
0R"
0Q"
0P"
0I"
0J"
b10 5"
1p
#1500
0p
#2000
1j
0!
0?
1L
1@
b10 {"
b10 s"
0+
0)
0*
0(
0,
0-
b10 r
b10 '#
b0 q
b0 (#
b100 n
b100 o"
0"
0g
1h
0i
b1000 ^
b0 D
b0 Y
b0 X
b10 W
b10 E
b1000000000000010 K
b100 \
b100 r"
b100 5"
0L"
0M"
0@"
0D"
b10 <"
b0 v
1i"
b10 u
b10 ;"
b10 W"
b1000000000000010 k
b1000000000000010 }"
b1000000000000010 %#
b1 ##
b10 u"
b10 z"
1p
#2500
0p
#3000
b0 |"
b0 Q
b0 6
b0 7
b0 5
b0 e
b0 _
b10 a
b0 T
b0 d
b1 r
b1 '#
b0 1
b0 H
b0 l
b0 m
b11 {"
b11 s"
b1000 D
b1000 X
b1 W
b1 E
02
b110 n
b110 o"
b110 \
b110 r"
b1000000010000001 K
b10 F
1G
b0 U
b11 z"
b100 u"
b1000000010000001 k
b1000000010000001 }"
b1000000010000001 %#
b10 ##
b0 .#
b10 -#
b100 u
b100 ;"
b100 W"
b100 <"
b10 v
1b"
1z
b10 k"
1a"
b0 S"
b0 O"
b10 T"
b0 y
0."
0("
0}
0#"
0!"
0&"
0*"
1,"
00"
0A"
0="
b10 9"
b0 6"
b0 F"
b10 E"
1e"
b110 5"
1p
#3500
0p
#4000
b1 6
b1 7
b1 5
b1 Z
1:
1!
0L
0@
1?
b11 {"
b11 s"
b0 q"
b0 M
b0 "#
1(
b10 q
b10 (#
b110 n
b110 o"
1m"
b0 S
b0 !#
0'
1B
0h
b1110 ^
b11 D
b10 Y
b11 X
b0 o
b0 ,#
b10 f
b0 p"
b0 J
b0 N
x;
b1 F
b1110001000110001 K
b1000 \
b1000 r"
b1000 5"
0&
0%"
0>"
0B"
b10 :"
b10 s
b10 U"
b10 +#
1c"
1{
0/"
0)"
0~
0$"
0""
0'"
0+"
1-"
01"
b0 $
b0 n"
b0 7"
b0 4"
b0 /
b0 <
b0 V"
03"
b0 G"
1f"
b1 k"
b1000 S"
b1 T"
b1000 y
b100 9"
b10 6"
b1 E"
b110 <"
b100 v
b110 u
b110 ;"
b110 W"
b1 -#
b1110001000110001 k
b1110001000110001 }"
b1110001000110001 %#
b0 $#
b11 ##
b110 u"
b100 z"
1p
#4500
0p
#5000
b100 {"
b100 s"
b1000 n
b1000 o"
b1000 m
b1000 M
b1000 "#
b1000000000000000 R
b0 6
b0 7
b0 5
b1000 I
b1000 o
b1000 ,#
b1000 S
b0 Z
b100 f
b1 p"
b1000 J
1;
b101 z"
b1000000000000010 c
b1000000000000010 ~"
b1000000000000010 &#
b1000010011100000 k
b1000010011100000 }"
b1000010011100000 %#
b0 O
b0 *#
b10 .#
b1 _"
b1 `"
1R"
b10 F"
b1 N"
b1110001000110001 X"
b1 ]"
b100 :"
b1 s
b1 U"
b1 +#
b10 $
b10 n"
b10 7"
b1000 4"
0K"
1|
b0 8"
1p
#5500
0p
#6000
0!
1j
1L
1@
0?
b101 {"
b101 s"
0:
0(
b0 r
b0 '#
b100 q
b100 (#
b1010 n
b1010 o"
b0 6
b0 7
b0 5
1h
b1000 ^
b1110 D
b100 Y
b1110 X
b0 W
b0 E
0;
0B
0G
b0 Z
b1000010011100000 K
b1000 V
b1010 \
b1010 r"
b1010 5"
b1000000000000010 H"
b10 8"
b1000 %
b1000 l"
b1000 j"
b1000 b
b1000 d"
1t
0b"
0a"
b11 S"
b10 O"
b100011 y
1}
0,"
b110 9"
b100 6"
b0 N"
b0 ]"
b1000 <"
b110 v
b0 `"
b1000 u
b1000 ;"
b1000 W"
b0 _"
b1000 P
b1000 )#
b100 ##
b1000 u"
b110 z"
1p
#6500
0p
#7000
bx |"
bx Q
bx e
1'
bx T
bx d
b101 q
b101 (#
bx 1
bx H
bx l
b0 I
b0 M
b0 "#
b110 {"
b110 s"
b1001 D
b101 Y
b1001 X
bx m
1#
b0 o
b0 ,#
b0 S
b1100 n
b1100 o"
b1100 \
b1100 r"
b1000010110010000 K
bx U
b0 F
1G
b0 V
b1 q"
1;
b1000 f
b10 p"
b0 J
0B
b111 z"
b1010 u"
b1000010110010000 k
b1000010110010000 }"
b1000010110010000 %#
b101 ##
bx O
bx *#
b100 .#
bx P
bx )#
b0 -#
b1010 u
b1010 ;"
b1010 W"
b1010 <"
b1000 v
1b"
b0 k"
1a"
b1110 S"
b100 O"
b0 T"
b1001110 y
0}
1,"
b1000 9"
b110 6"
0R"
b100 F"
b0 E"
1&
1%"
b110 :"
0c"
1~
0-"
b100 $
b100 n"
b100 7"
b0 4"
0t
b1100 5"
1p
#7500
0p
#8000
b100 {"
b100 s"
bx000000001001110 M
bx000000001001110 "#
b10 r
b10 '#
b1111 q
b1111 (#
b1000 n
b1000 o"
0#
b1001110 o
b1001110 ,#
bx000000001001110 S
bx !#
0h
1i
b1001 ^
b1111 D
b1111 Y
b1111 X
b10 W
b10 E
0'
b0 q"
b11 p"
b1001110 J
bx N
0;
b1001111111110010 K
b1110 \
b1110 r"
b1000 5"
1w
b100 8"
0&
0%"
b1000 :"
b0 s
b0 U"
b0 +#
1c"
0~
1-"
b110 $
b110 n"
b110 7"
b1001110 4"
bx /
bx <
bx V"
b0 %
b0 l"
b0 j"
b0 b
b0 d"
bx G"
0f"
b1001 S"
b101 O"
b1011001 y
b1010 9"
b1000 6"
b101 F"
0e"
b1100 <"
b1010 v
0i"
b1100 u
b1100 ;"
0g"
b1100 W"
b101 .#
b1001111111110010 k
b1001111111110010 }"
b1001111111110010 %#
bx $#
b110 ##
b100 t"
b1100 u"
b1000 z"
1p
#8500
0p
#9000
1j
1L
1@
b1 r
b1 '#
b1 q
b1 (#
bx01011001 M
bx01011001 "#
b101 {"
b101 s"
bx00000000 R
1h
0i
b1000 ^
b10 D
b1 Y
b10 X
b1 W
b1 E
b1011001 o
b1011001 ,#
bx01011001 S
b1010 n
b1010 o"
b1010 \
b1010 r"
b1000000100100001 K
b1010 f
b100 p"
b1011001 J
b1001 z"
b1000 u"
bx c
bx ~"
bx &#
b1000000100100001 k
b1000000100100001 }"
b1000000100100001 %#
b100 ##
b1111 .#
b0 P
b0 )#
b10 -#
b1000 u
b1110 ;"
1g"
b1000 W"
b1111 F"
b10 E"
b1010 :"
b1000 $
b1000 n"
b1000 7"
b1011001 4"
xK"
b1010 5"
0w
b110 8"
1p
#9500
0p
#10000
b100 |"
b1000 Q
b1000 e
b1000 T
b1000 d
b110 {"
b110 s"
b1000 1
b1000 H
b1000 l
b1000 m
b1000 I
b0 r
b0 '#
b101 q
b101 (#
b1100 n
b1100 o"
b1001 D
b101 Y
b1001 X
b0 W
b0 E
b1000 U
b1000 V
b1000010110010000 K
b1100 \
b1100 r"
b1100 5"
bx H"
b1000 8"
b1 F"
b1 E"
b1010 <"
b1000 v
1i"
b1010 u
b1010 ;"
b1010 W"
b1000 O
b1000 *#
b1 .#
b1000 P
b1000 )#
b1 -#
b1000010110010000 k
b1000010110010000 }"
b1000010110010000 %#
b101 ##
b1010 u"
b1010 z"
1p
#10500
0p
#11000
bx |"
bx Q
bx e
bx T
bx d
b10 r
b10 '#
b1111 q
b1111 (#
bx 1
bx H
bx l
bx m
b0 I
b1011001 M
b1011001 "#
b111 {"
b111 s"
0h
1i
b1001 ^
b1111 D
b1111 Y
b1111 X
b10 W
b10 E
b1011001 S
b100 !#
b1110 n
b1110 o"
b1110 \
b1110 r"
b1001111111110010 K
bx U
b0 V
b1000 N
b1011 z"
b1100 u"
b1001111111110010 k
b1001111111110010 }"
b1001111111110010 %#
b100 $#
b110 ##
bx O
bx *#
b101 .#
bx P
bx )#
b0 -#
b1100 u
b1100 ;"
b1100 W"
b1100 <"
b1010 v
b101 F"
b0 E"
1e"
b1000 /
b1000 <
b1000 V"
b1000 %
b1000 l"
b1000 j"
b1000 b
b1000 d"
b1000 G"
b1110 5"
1p
#11500
0p
#12000
1j
1L
1@
b1000 {"
b1000 s"
bx0000x0x01011001 M
bx0000x0x01011001 "#
b1 r
b1 '#
b1 q
b1 (#
b10000 n
b10000 o"
bx0000x0x01011001 S
bx !#
1B
b1000010100000000 R
1h
0i
b1000 ^
b10 D
b1 Y
b10 X
b1 W
b1 E
bx N
b10 F
b1000000100100001 K
b10000 \
b10000 r"
b10000 5"
bx /
bx <
bx V"
b0 %
b0 l"
b0 j"
b0 b
b0 d"
0K"
bx G"
1f"
b10 k"
b1111 S"
b1111 O"
b10 T"
b11111111 y
1*"
0,"
b1100 9"
b1010 6"
b1111 F"
b10 E"
b1110 <"
b1100 v
b1110 u
b1110 ;"
b1110 W"
b1111 .#
b0 P
b0 )#
b10 -#
b1000010110010000 c
b1000010110010000 ~"
b1000010110010000 &#
b1000000100100001 k
b1000000100100001 }"
b1000000100100001 %#
bx $#
b111 ##
b1110 u"
b1100 z"
1p
#12500
0p
#13000
b1 6
b1 7
b1 5
b1 Z
1:
b100 |"
1!
b1000 Q
1?
b1000 e
0L
0@
b1000 T
b1000 d
1*
b10 q
b10 (#
b1000 1
b1000 H
b1000 l
b1000 m
b1000 I
bx00000000 M
bx00000000 "#
b1000 {"
b1000 s"
bx00000000 R
0h
b1110 ^
b10 Y
b1111111100000000 o
b1111111100000000 ,#
bx00000000 S
b10000 n
b10000 o"
b10010 \
b10010 r"
b1110001000100001 K
b1000 U
b1000 V
b1 F
1;
b1100 f
b101 p"
b1111111100000000 J
b1101 z"
b10000 u"
bx c
bx ~"
bx &#
b1110001000100001 k
b1110001000100001 }"
b1110001000100001 %#
b1000 ##
b1000 O
b1000 *#
b1 .#
b1000 P
b1000 )#
b1 -#
b10000 u
b10000 ;"
b10000 W"
b10000 <"
b1110 v
b1 k"
b10 S"
b1 O"
b1 T"
b10010 y
0*"
1,"
b1110 9"
b1100 6"
b1 F"
b1 E"
b1100 :"
b10 s
b10 U"
b10 +#
1+"
0-"
b1010 $
b1010 n"
b1010 7"
b1111111100000000 4"
xK"
b10010 5"
b1000010110010000 H"
1p
#13500
0p
#14000
b111111110000000 |"
b1111111100000000 Q
b1111111100000000 e
bx00000000 R
b1111111100000000 T
b1111111100000000 d
b1001 {"
b1001 s"
b1111111100000000 1
b1111111100000000 H
b10010 I
b10010 n
b10010 o"
b10010 M
b10010 "#
b1111111100000000 l
b10010 o
b10010 ,#
b10010 S
b100 !#
b10010 m
b0 6
b0 7
b0 5
b10010 J
b1110 f
b110 p"
b1000 N
b0 Z
b1111111100000000 U
bx H"
b1010 8"
b1110 :"
b1 s
b1 U"
b1 +#
0+"
1-"
b1100 $
b1100 n"
b1100 7"
b10010 4"
b1000 /
b1000 <
b1000 V"
b1000 %
b1000 l"
b1000 j"
b1000 b
b1000 d"
b1000 G"
1R"
b10 F"
b1 N"
b1110001000100001 X"
b1 ]"
b1 `"
b1 _"
b1111111100000000 O
b1111111100000000 *#
b10 .#
b1000010011100000 k
b1000010011100000 }"
b1000010011100000 %#
b100 $#
b1110 z"
1p
#14500
0p
#15000
0!
1j
0?
1L
1@
0:
0*
b0 r
b0 '#
b100 q
b100 (#
b1010 {"
b1010 s"
b1000010100000000 R
b0 6
b0 7
b0 5
b10010 I
1h
b1000 ^
b1110 D
b100 Y
b1110 X
b0 W
b0 E
b111111110000000 !#
b10100 n
b10100 o"
b10100 \
b10100 r"
b10010 V
0G
b0 Z
b1000010011100000 K
b1111111100000000 N
0B
0;
b1111 z"
b10010 u"
b1000010110010000 c
b1000010110010000 ~"
b1000010110010000 &#
b111111110000000 $#
b1001 ##
b10010 P
b10010 )#
b10010 u
b10010 ;"
b10010 W"
b0 _"
b10010 <"
b10000 v
b0 `"
0b"
0a"
b10 O"
b100010 y
1#"
0,"
b10000 9"
b1110 6"
b0 N"
b0 ]"
b1111111100000000 /
b1111111100000000 <
b1111111100000000 V"
b10010 %
b10010 l"
b10010 j"
b10010 b
b10010 d"
1t
0K"
b1111111100000000 G"
b10100 5"
b1100 8"
1p
#15500
0p
#16000
bx |"
bx Q
bx e
1'
bx T
bx d
b1011 {"
b1011 s"
1#
b0 M
b0 "#
bx 1
bx H
bx l
b0 I
b101 q
b101 (#
b10110 n
b10110 o"
b0 o
b0 ,#
b0 S
bx m
bx00000000 R
b1001 D
b101 Y
b1001 X
b1 q"
1;
b10010 f
b111 p"
b0 J
0B
b0 F
1G
bx U
b0 V
b1000010110010000 K
b10110 \
b10110 r"
b10110 5"
b1000010110010000 H"
1&
1%"
b10000 :"
0c"
1$"
0-"
b1110 $
b1110 n"
b1110 7"
b0 4"
0t
1b"
b0 k"
1a"
b1110 S"
b100 O"
b0 T"
b1001110 y
0#"
1,"
b10010 9"
b10000 6"
0R"
b100 F"
b0 E"
b10100 <"
b10010 v
b10100 u
b10100 ;"
b10100 W"
bx O
bx *#
b100 .#
b1011001 P
b1011001 )#
b0 -#
bx c
bx ~"
bx &#
b1000010110010000 k
b1000010110010000 }"
b1000010110010000 %#
b1010 ##
b10100 u"
b10000 z"
1p
#16500
0p
#17000
b11 r
b11 '#
b1110 q
b1110 (#
bx01001110 M
bx01001110 "#
b1001 {"
b1001 s"
0#
b1000 D
b1110 Y
b1000 X
b11 W
b11 E
b1001110 o
b1001110 ,#
bx01001110 S
bx !#
b10010 n
b10010 o"
b11000 \
b11000 r"
b1000111010000011 K
b0 q"
b1000 p"
b1001110 J
bx N
0'
0;
b10001 z"
b10000100 t"
b10110 u"
b1000111010000011 k
b1000111010000011 }"
b1000111010000011 %#
bx $#
b1011 ##
b101 .#
b10110 u
b10110 ;"
0g"
b10110 W"
b10110 <"
b10100 v
0i"
b1001 S"
b101 O"
b1011001 y
b10100 9"
b10010 6"
b101 F"
0e"
0&
0%"
b10010 :"
b0 s
b0 U"
b0 +#
1c"
0$"
1-"
b10000 $
b10000 n"
b10000 7"
b1001110 4"
bx /
bx <
bx V"
b0 %
b0 l"
b0 j"
b0 b
b0 d"
bx G"
0f"
b10010 5"
1w
bx H"
b1110 8"
1p
#17500
0p
#18000
bx R
b1010 {"
b1010 s"
bx01011001 M
bx01011001 "#
bx I
b100 r
b100 '#
b101 q
b101 (#
b10100 n
b10100 o"
b1011001 o
b1011001 ,#
bx01011001 S
b1001 D
b101 Y
b1001 X
b100 W
b100 E
b10100 f
b1001 p"
b1011001 J
bx V
b1000010110010100 K
b10100 \
b10100 r"
b10100 5"
0w
b10000 8"
b10100 :"
b10010 $
b10010 n"
b10010 7"
b1011001 4"
xK"
b1110 F"
b11 E"
b10010 u
b11000 ;"
1g"
b10010 W"
b1110 .#
bx P
bx )#
b11 -#
b1000010110010100 k
b1000010110010100 }"
b1000010110010100 %#
b1001 ##
b10010 u"
b10010 z"
1p
#18500
0p
#19000
b0 r
b0 '#
b1011 {"
b1011 s"
b0 W
b0 E
b10110 n
b10110 o"
b10110 \
b10110 r"
b1000010110010000 K
b10011 z"
b10100 u"
b1000010110010000 k
b1000010110010000 }"
b1000010110010000 %#
b1010 ##
b101 .#
b100 -#
b10100 u
b10100 ;"
b10100 W"
b10100 <"
b10010 v
1i"
b101 F"
b100 E"
bx %
bx l"
bx j"
bx b
bx d"
b10110 5"
b10010 8"
1p
#19500
0p
#20000
bx00000000 R
b1100 {"
b1100 s"
b0 I
b11 r
b11 '#
b1110 q
b1110 (#
b11000 n
b11000 o"
b1000 D
b1110 Y
b1000 X
b11 W
b11 E
b0 V
b1000111010000011 K
b11000 \
b11000 r"
b11000 5"
b0 E"
1e"
b10110 <"
b10100 v
b10110 u
b10110 ;"
b10110 W"
b1011001 P
b1011001 )#
b0 -#
b1000111010000011 k
b1000111010000011 }"
b1000111010000011 %#
b1011 ##
b10110 u"
b10100 z"
1p
#20500
0p
#21000
bx R
b100 r
b100 '#
b101 q
b101 (#
bx I
b1101 {"
b1101 s"
b1001 D
b101 Y
b1001 X
b100 W
b100 E
1B
b11010 n
b11010 o"
b11010 \
b11010 r"
b1000010110010100 K
b11 F
bx V
b10101 z"
b11000 u"
b1000010110010100 k
b1000010110010100 }"
b1000010110010100 %#
b1100 ##
b1110 .#
bx P
bx )#
b11 -#
b11000 u
b11000 ;"
b11000 W"
b11000 <"
b10110 v
b11 k"
b1000 S"
b1110 O"
b11 T"
b11101000 y
b10110 9"
b10100 6"
b1110 F"
b11 E"
b0 %
b0 l"
b0 j"
b0 b
b0 d"
1f"
b11010 5"
1p
#21500
0p
#22000
b1 6
b1 7
b1 5
b1 Z
1:
0L
0@
1!
1?
b1101 {"
b1101 s"
bx11101000 M
bx11101000 "#
1-
b11 q
b11 (#
b11010 n
b11010 o"
b1111111111101000 o
b1111111111101000 ,#
bx11101000 S
0h
b1111 ^
b1 D
b11 Y
b1 X
1;
b10110 f
b1010 p"
b1111111111101000 J
b100 F
b1111001100010100 K
b11100 \
b11100 r"
b11100 5"
b10110 :"
b11 s
b11 U"
b11 +#
b10100 $
b10100 n"
b10100 7"
b1111111111101000 4"
bx %
bx l"
bx j"
bx b
bx d"
b100 k"
b1001 S"
b101 O"
b100 T"
b1011001 y
b11000 9"
b10110 6"
b101 F"
b100 E"
b11010 <"
b11000 v
b11010 u
b11010 ;"
b11010 W"
b101 .#
b100 -#
b1111001100010100 k
b1111001100010100 }"
b1111001100010100 %#
b1101 ##
b11010 u"
b10110 z"
1p
#22500
0p
#23000
b111111111110100 |"
b1111111111101000 Q
b1111111111101000 e
b1111111111101000 T
b1111111111101000 d
bx00000000 R
b1111111111101000 1
b1111111111101000 H
b1110 {"
b1110 s"
b1011001 I
b11100 n
b11100 o"
b1111111111101000 l
bx01011001 M
bx01011001 "#
b1011001 m
b0 6
b0 7
b0 5
b1011001 o
b1011001 ,#
bx01011001 S
b1111111111101000 U
b0 Z
b11000 f
b1011 p"
b1011001 J
b10111 z"
b1111001100000000 k
b1111001100000000 }"
b1111001100000000 %#
b1111111111101000 O
b1111111111101000 *#
b11 .#
b1 _"
b1 `"
1R"
b11 F"
b1 N"
b1111001100010100 X"
b1 ]"
b11000 :"
b100 s
b100 U"
b100 +#
b10110 $
b10110 n"
b10110 7"
b1011001 4"
b10100 8"
1p
#23500
0p
#24000
1@
1L
1!
0?
1j
b1111 {"
b1111 s"
b1011001 M
b1011001 "#
0:
1,
0-
b0 r
b0 '#
b11110 n
b11110 o"
b1011001 S
b111111111110100 !#
b0 6
b0 7
b0 5
b0 D
b0 X
b0 W
b0 E
0;
b1111111111101000 N
0B
0G
b0 Z
b1111001100000000 K
b1011001 V
b11110 \
b11110 r"
b11110 5"
b10110 8"
b1111111111101000 /
b1111111111101000 <
b1111111111101000 V"
b1011001 %
b1011001 l"
b1011001 j"
b1011001 b
b1011001 d"
1t
b1111111111101000 G"
0b"
0a"
b1 S"
b11 O"
b110001 y
1."
0,"
b11010 9"
b11000 6"
b0 N"
b0 ]"
b11100 <"
b11010 v
b0 `"
b11100 u
b11100 ;"
b11100 W"
b0 _"
b1011001 P
b1011001 )#
b111111111110100 $#
b1110 ##
b11100 u"
b11000 z"
1p
#24500
0p
