cpu/cpu.vcd
$date
	Wed May  6 16:58:01 2020
$end
$version
	Icarus Verilog
$end
$timescale
	1ps
$end
$scope module main $end
$var wire 1 ! a_read_ops $end
$var wire 1 " b_read_ops $end
$var wire 1 # bp_wen $end
$var wire 16 $ bp_write_addr [15:0] $end
$var wire 16 % bp_write_branch [15:0] $end
$var wire 1 & bp_write_taken $end
$var wire 1 ' flush $end
$var wire 1 ( isJns $end
$var wire 1 ) isJnz $end
$var wire 1 * isJs $end
$var wire 1 + isJz $end
$var wire 1 , isLd $end
$var wire 1 - isSt $end
$var wire 1 . load_ex $end
$var wire 16 / mem_addr [15:0] $end
$var wire 1 0 mem_hazard $end
$var wire 16 1 mem_read_addr [15:0] $end
$var wire 1 2 misaligned $end
$var wire 1 3 mispredict $end
$var wire 1 4 mispredict_nj $end
$var wire 3 5 next_stall_d [2:0] $end
$var wire 3 6 next_stall_f1 [2:0] $end
$var wire 3 7 next_stall_f2 [2:0] $end
$var wire 1 8 raw_hazard_a $end
$var wire 1 9 raw_hazard_b $end
$var wire 1 : raw_hazard_t $end
$var wire 1 ; retired $end
$var wire 16 < saddr [15:0] $end
$var wire 1 = smc $end
$var wire 1 > store_ex $end
$var wire 1 ? t_read_ops $end
$var wire 1 @ t_write_ops $end
$var wire 1 A temp_writeen $end
$var wire 1 B updatesRegs_w $end
$var wire 1 C writeen $end
$var wire 4 D xop [3:0] $end
$var wire 4 E write_rt [3:0] $end
$var wire 4 F used_write_rt [3:0] $end
$var wire 1 G used_t_write_ops $end
$var wire 16 H used_regy [15:0] $end
$var wire 16 I used_regx [15:0] $end
$var wire 16 J used_out [15:0] $end
$var wire 16 K used_ins [15:0] $end
$var wire 1 L updatesRegs $end
$var wire 16 M temp_sdata [15:0] $end
$var wire 16 N temp_saddr [15:0] $end
$var wire 16 O temp_regy [15:0] $end
$var wire 16 P temp_regx [15:0] $end
$var wire 16 Q temp_laddr [15:0] $end
$var wire 16 R sdata_ex [15:0] $end
$var wire 16 S sdata [15:0] $end
$var wire 16 T saddr_ex [15:0] $end
$var wire 16 U regy [15:0] $end
$var wire 16 V regx [15:0] $end
$var wire 4 W read_rt [3:0] $end
$var wire 4 X read_rb [3:0] $end
$var wire 4 Y read_ra [3:0] $end
$var wire 2 Z raw_hazard [1:0] $end
$var wire 1 [ pred_valid $end
$var wire 16 \ pred_target [15:0] $end
$var wire 1 ] pred_taken $end
$var wire 4 ^ opcode [3:0] $end
$var wire 3 _ next_stall_e [2:0] $end
$var wire 3 ` next_mis_st_cnt [2:0] $end
$var wire 2 a mem_hazard_stall [1:0] $end
$var wire 16 b mem_data [15:0] $end
$var wire 16 c ldata [15:0] $end
$var wire 16 d laddr_ex [15:0] $end
$var wire 16 e laddr [15:0] $end
$var wire 16 f jump_addr [15:0] $end
$var wire 1 g isSub $end
$var wire 1 h isMovl $end
$var wire 1 i isMovh $end
$var wire 1 j isDefined $end
$var wire 16 k ins [15:0] $end
$var wire 16 l forward_regy [15:0] $end
$var wire 16 m forward_regx [15:0] $end
$var wire 16 n faddr [15:0] $end
$var wire 16 o datat [15:0] $end
$var wire 1 p clk $end
$var wire 4 q addy [3:0] $end
$var wire 4 r addx [3:0] $end
$var wire 4 s addt [3:0] $end
$var reg 1 t dont_write_back $end
$var reg 16 u faddr_f1 [15:0] $end
$var reg 16 v faddr_f2 [15:0] $end
$var reg 1 w flush_wb $end
$var reg 1 x halt $end
$var reg 8 y i [7:0] $end
$var reg 1 z isDefined_d $end
$var reg 1 { isDefined_e $end
$var reg 1 | isDefined_w $end
$var reg 1 } isJns_d $end
$var reg 1 ~ isJns_e $end
$var reg 1 !" isJnz_d $end
$var reg 1 "" isJnz_e $end
$var reg 1 #" isJs_d $end
$var reg 1 $" isJs_e $end
$var reg 1 %" isJumping $end
$var reg 1 &" isJz_d $end
$var reg 1 '" isJz_e $end
$var reg 1 (" isLd_d $end
$var reg 1 )" isLd_e $end
$var reg 1 *" isMovh_d $end
$var reg 1 +" isMovh_e $end
$var reg 1 ," isMovl_d $end
$var reg 1 -" isMovl_e $end
$var reg 1 ." isSt_d $end
$var reg 1 /" isSt_e $end
$var reg 1 0" isSub_d $end
$var reg 1 1" isSub_e $end
$var reg 3 2" mis_st_cnt [2:0] $end
$var reg 1 3" misaligned_e $end
$var reg 16 4" out [15:0] $end
$var reg 16 5" pc [15:0] $end
$var reg 16 6" pc_d [15:0] $end
$var reg 16 7" pc_e [15:0] $end
$var reg 16 8" pc_w [15:0] $end
$var reg 16 9" pred_pc_d [15:0] $end
$var reg 16 :" pred_pc_e [15:0] $end
$var reg 16 ;" pred_pc_f1 [15:0] $end
$var reg 16 <" pred_pc_f2 [15:0] $end
$var reg 1 =" pred_taken_d $end
$var reg 1 >" pred_taken_e $end
$var reg 1 ?" pred_taken_f1 $end
$var reg 1 @" pred_taken_f2 $end
$var reg 1 A" pred_valid_d $end
$var reg 1 B" pred_valid_e $end
$var reg 1 C" pred_valid_f1 $end
$var reg 1 D" pred_valid_f2 $end
$var reg 4 E" prev_addx [3:0] $end
$var reg 4 F" prev_addy [3:0] $end
$var reg 16 G" prev_laddr [15:0] $end
$var reg 16 H" prev_ldata [15:0] $end
$var reg 1 I" prev_mem_hazard $end
$var reg 1 J" prev_misaligned $end
$var reg 1 K" prev_prev_laddr $end
$var reg 1 L" prev_prev_memhazard $end
$var reg 1 M" prev_prev_misaligned $end
$var reg 2 N" prev_raw_hazard [1:0] $end
$var reg 4 O" ra [3:0] $end
$var reg 1 P" raw_hazard_a_d $end
$var reg 1 Q" raw_hazard_b_d $end
$var reg 1 R" raw_hazard_t_d $end
$var reg 4 S" rb [3:0] $end
$var reg 4 T" rt [3:0] $end
$var reg 4 U" rt_e [3:0] $end
$var reg 16 V" saddr_e [15:0] $end
$var reg 16 W" saved_faddr [15:0] $end
$var reg 16 X" saved_ins [15:0] $end
$var reg 16 Y" saved_regx [15:0] $end
$var reg 16 Z" saved_regy [15:0] $end
$var reg 1 [" saved_t_write_ops $end
$var reg 4 \" saved_write_rt [3:0] $end
$var reg 3 ]" stall_d [2:0] $end
$var reg 3 ^" stall_e [2:0] $end
$var reg 3 _" stall_f1 [2:0] $end
$var reg 3 `" stall_f2 [2:0] $end
$var reg 1 a" t_write_ops_d $end
$var reg 1 b" updatesRegs_d $end
$var reg 1 c" updatesRegs_e $end
$var reg 16 d" used_regx_e [15:0] $end
$var reg 1 e" valid_d $end
$var reg 1 f" valid_e $end
$var reg 1 g" valid_f1 $end
$var reg 1 h" valid_f1_ $end
$var reg 1 i" valid_f2 $end
$var reg 16 j" vt [15:0] $end
$var reg 4 k" write_rt_d [3:0] $end
$scope module branch $end
$var wire 16 l" branch [15:0] $end
$var wire 1 & branch_taken $end
$var wire 1 m" diff_target $end
$var wire 16 n" hist_addr [15:0] $end
$var wire 16 o" pc [15:0] $end
$var wire 1 ] taken $end
$var wire 1 [ valid $end
$var wire 1 # wen $end
$var wire 10 p" write_index [9:0] $end
$var wire 2 q" write_history [1:0] $end
$var wire 16 r" target [15:0] $end
$var wire 10 s" hash_index [9:0] $end
$var wire 1 p clk $end
$var reg 1024 t" branch_valid [1023:0] $end
$var reg 16 u" prev_pc [15:0] $end
$var reg 2 v" read_history [1:0] $end
$var reg 5 w" read_tag [4:0] $end
$var reg 16 x" read_target [15:0] $end
$var reg 1 y" read_valid $end
$upscope $end
$scope module c0 $end
$var wire 1 p clk $end
$var reg 1 p theClock $end
$upscope $end
$scope module ctr $end
$var wire 1 p clk $end
$var wire 1 x isHalt $end
$var reg 32 z" count [31:0] $end
$upscope $end
$scope module mem $end
$var wire 1 p clk $end
$var wire 15 {" raddr0_ [15:1] $end
$var wire 15 |" raddr1_ [15:1] $end
$var wire 16 }" rdata0_ [15:0] $end
$var wire 16 ~" rdata1_ [15:0] $end
$var wire 15 !# waddr [15:1] $end
$var wire 16 "# wdata [15:0] $end
$var wire 1 A wen $end
$var reg 15 ## raddr0 [15:1] $end
$var reg 15 $# raddr1 [15:1] $end
$var reg 16 %# rdata0 [15:0] $end
$var reg 16 &# rdata1 [15:0] $end
$upscope $end
$scope module regs $end
$var wire 1 p clk $end
$var wire 4 '# raddr0_ [3:0] $end
$var wire 4 (# raddr1_ [3:0] $end
$var wire 16 )# rdata0 [15:0] $end
$var wire 16 *# rdata1 [15:0] $end
$var wire 4 +# waddr [3:0] $end
$var wire 16 ,# wdata [15:0] $end
$var wire 1 B wen $end
$var reg 4 -# raddr0 [3:0] $end
$var reg 4 .# raddr1 [3:0] $end
$upscope $end
$upscope $end
$enddefinitions $end
#0
$dumpvars
bx .#
bx -#
bx ,#
bx +#
bx *#
bx )#
bx (#
bx '#
bx &#
bx %#
bx $#
bx ##
bx "#
bx !#
bx ~"
bx }"
bx |"
b0 {"
b0 z"
0y"
bx x"
bx w"
bx v"
bx u"
b0 t"
b0 s"
bx r"
bx q"
bx p"
b0 o"
bx n"
xm"
bx l"
bx k"
bx j"
0i"
1h"
0g"
0f"
0e"
bx d"
xc"
xb"
xa"
b0 `"
b0 _"
b0 ^"
b0 ]"
bx \"
x["
bx Z"
bx Y"
bx X"
bx W"
bx V"
bx U"
bx T"
bx S"
xR"
xQ"
xP"
bx O"
b0 N"
xM"
xL"
xK"
xJ"
xI"
bx H"
bx G"
bx F"
bx E"
xD"
xC"
xB"
xA"
x@"
x?"
x>"
x="
bx <"
bx ;"
bx :"
bx 9"
bx 8"
bx 7"
bx 6"
b0 5"
bx 4"
x3"
b0 2"
x1"
x0"
x/"
x."
x-"
x,"
x+"
x*"
x)"
x("
x'"
x&"
x%"
x$"
x#"
x""
x!"
x~
x}
x|
x{
xz
bx y
0x
0w
bx v
bx u
0t
bx s
bx r
bx q
1p
bx o
b0 n
bx m
bx l
bx k
0j
xi
xh
xg
bx f
bx e
bx d
bx c
bx b
b10 a
b0 `
b0 _
bx ^
0]
bx \
0[
b0 Z
bx Y
bx X
bx W
bx V
bx U
bx T
bx S
bx R
bx Q
bx P
bx O
bx N
bx M
xL
bx K
bx J
bx I
bx H
xG
bx F
bx E
bx D
0C
0B
0A
x@
x?
0>
0=
bx <
0;
0:
09
08
b0 7
b0 6
b0 5
04
03
02
bx 1
00
bx /
0.
x-
x,
x+
x*
x)
x(
0'
x&
bx %
bx $
0#
x"
x!
$end
#500
0p
#1000
b1 {"
b1 s"
b10 n
b10 o"
b10 \
b10 r"
b1 z"
b0 u"
b0 ##
b0 u
0?"
0C"
1g"
b0 W"
0R"
0Q"
0P"
0I"
0J"
b10 5"
1p
#1500
0p
#2000
1j
0!
0?
1L
1@
b10 {"
b10 s"
0+
0)
0*
0(
0,
0-
b0 r
b0 '#
b111 q
b111 (#
b100 n
b100 o"
0"
0g
1h
0i
b1000 ^
b110 D
b111 Y
b110 X
b0 W
b0 E
b1000011101100000 K
b100 \
b100 r"
b100 5"
0L"
0M"
0@"
0D"
b10 <"
b0 v
1i"
b10 u
b10 ;"
b10 W"
b1000011101100000 k
b1000011101100000 }"
b1000011101100000 %#
b1 ##
b10 u"
b10 z"
1p
#2500
0p
#3000
b0 6
b0 7
b0 5
b0 _
bx00000000 R
b10 a
b110 q
b110 (#
b0 I
b11 {"
b11 s"
b101 D
b110 Y
b101 X
02
b110 n
b110 o"
b110 \
b110 r"
b1000011001010000 K
b0 F
1G
b0 V
b11 z"
b100 u"
b1000011001010000 k
b1000011001010000 }"
b1000011001010000 %#
b10 ##
b111 .#
b0 -#
b100 u
b100 ;"
b100 W"
b100 <"
b10 v
1b"
1z
b0 k"
1a"
b110 S"
b111 O"
b0 T"
b1110110 y
0."
0("
0}
0#"
0!"
0&"
0*"
1,"
00"
0A"
0="
b10 9"
b0 6"
b111 F"
b0 E"
1e"
b110 5"
1p
#3500
0p
#4000
bx01110110 M
bx01110110 "#
b100 {"
b100 s"
b0 q"
bx01110110 S
b111 q
b111 (#
b1000 n
b1000 o"
1m"
0'
1B
b10 D
b111 Y
b10 X
b1110110 o
b1110110 ,#
b0 p"
b1110110 J
b10 f
x;
b1000011100100000 K
b1000 \
b1000 r"
b1000 5"
0&
0%"
0>"
0B"
b10 :"
b0 s
b0 U"
b0 +#
1c"
1{
0/"
0)"
0~
0$"
0""
0'"
0+"
1-"
01"
b0 $
b0 n"
b0 7"
b1110110 4"
b0 %
b0 l"
b0 j"
03"
b0 b
b0 d"
1f"
b101 S"
b110 O"
b1100101 y
b100 9"
b10 6"
b110 F"
b110 <"
b100 v
b110 u
b110 ;"
b110 W"
b110 .#
b1000011100100000 k
b1000011100100000 }"
b1000011100100000 %#
b11 ##
b110 u"
b100 z"
1p
#4500
0p
#5000
b110 q
b110 (#
bx01100101 M
bx01100101 "#
b101 {"
b101 s"
b1001 D
b110 Y
b1001 X
b1100101 o
b1100101 ,#
bx01100101 S
b1010 n
b1010 o"
b1010 \
b1010 r"
b1000011010010000 K
b100 f
b1 p"
b1100101 J
1;
b101 z"
b1000 u"
b1000011010010000 k
b1000011010010000 }"
b1000011010010000 %#
b100 ##
b1110110 P
b1110110 )#
b111 .#
b1000 u
b1000 ;"
b1000 W"
b1000 <"
b110 v
b10 S"
b111 O"
b1110010 y
b110 9"
b100 6"
b111 F"
b100 :"
b10 $
b10 n"
b10 7"
b1100101 4"
b1010 5"
1|
b0 8"
1p
#5500
0p
#6000
b110 {"
b110 s"
bx01110010 M
bx01110010 "#
b1100 n
b1100 o"
b1110010 o
b1110010 ,#
bx01110010 S
b1100 D
b1100 X
b110 f
b10 p"
b1110010 J
b1000011011000000 K
b1100 \
b1100 r"
b1100 5"
b10 8"
b110 :"
b100 $
b100 n"
b100 7"
b1110010 4"
b1001 S"
b110 O"
b1101001 y
b1000 9"
b110 6"
b110 F"
b1010 <"
b1000 v
b1010 u
b1010 ;"
b1010 W"
b1100101 P
b1100101 )#
b110 .#
b1000011011000000 k
b1000011011000000 }"
b1000011011000000 %#
b101 ##
b1010 u"
b110 z"
1p
#6500
0p
#7000
bx01101001 M
bx01101001 "#
b111 {"
b111 s"
b1111 D
b1111 X
b1101001 o
b1101001 ,#
bx01101001 S
b1110 n
b1110 o"
b1110 \
b1110 r"
b1000011011110000 K
b1000 f
b11 p"
b1101001 J
b111 z"
b1100 u"
b1000011011110000 k
b1000011011110000 }"
b1000011011110000 %#
b110 ##
b1110010 P
b1110010 )#
b1100 u
b1100 ;"
b1100 W"
b1100 <"
b1010 v
b1100 S"
b1101100 y
b1010 9"
b1000 6"
b1000 :"
b110 $
b110 n"
b110 7"
b1101001 4"
b1110 5"
b100 8"
1p
#7500
0p
#8000
b1000 {"
b1000 s"
bx01101100 M
bx01101100 "#
b10000 n
b10000 o"
b1101100 o
b1101100 ,#
bx01101100 S
b111 D
b111 X
b1010 f
b100 p"
b1101100 J
b1000011001110000 K
b10000 \
b10000 r"
b10000 5"
b110 8"
b1010 :"
b1000 $
b1000 n"
b1000 7"
b1101100 4"
b1111 S"
b1101111 y
b1100 9"
b1010 6"
b1110 <"
b1100 v
b1110 u
b1110 ;"
b1110 W"
b1101001 P
b1101001 )#
b1000011001110000 k
b1000011001110000 }"
b1000011001110000 %#
b111 ##
b1110 u"
b1000 z"
1p
#8500
0p
#9000
b0 q
b0 (#
bx01101111 M
bx01101111 "#
b1001 {"
b1001 s"
b1010 D
b0 Y
b1010 X
b1101111 o
b1101111 ,#
bx01101111 S
b10010 n
b10010 o"
b10010 \
b10010 r"
b1000000010100000 K
b1100 f
b101 p"
b1101111 J
b1001 z"
b10000 u"
b1000000010100000 k
b1000000010100000 }"
b1000000010100000 %#
b1000 ##
b1101100 P
b1101100 )#
b10000 u
b10000 ;"
b10000 W"
b10000 <"
b1110 v
b111 S"
b1100111 y
b1110 9"
b1100 6"
b1100 :"
b1010 $
b1010 n"
b1010 7"
b1101111 4"
b10010 5"
b1000 8"
1p
#9500
0p
#10000
b0 |"
b0 Q
b0 e
b0 T
b0 d
b1010 {"
b1010 s"
bx01100111 M
bx01100111 "#
b0 1
b0 H
b0 l
b0 m
b1 r
b1 '#
b11 q
b11 (#
b10100 n
b10100 o"
b1100111 o
b1100111 ,#
bx01100111 S
b11 D
b11 Y
b11 X
b1 W
b1 E
b1110 f
b110 p"
b1100111 J
b0 U
b1000001100110001 K
b10100 \
b10100 r"
b10100 5"
b1010 8"
b1110 :"
b1100 $
b1100 n"
b1100 7"
b1100111 4"
b1010 S"
b0 O"
b1010 y
b10000 9"
b1110 6"
b0 F"
b10010 <"
b10000 v
b10010 u
b10010 ;"
b10010 W"
b1101111 P
b1101111 )#
b1101111 O
b1101111 *#
b0 .#
b1000001100110001 k
b1000001100110001 }"
b1000001100110001 %#
b1001 ##
b10010 u"
b1010 z"
1p
#10500
0p
#11000
bx |"
bx Q
bx e
bx R
bx T
bx d
b10 r
b10 '#
b0 q
b0 (#
bx 1
bx H
bx l
bx m
bx I
b1010 M
b1010 "#
b1011 {"
b1011 s"
b0 Y
b10 W
b10 E
b1010 o
b1010 ,#
b1010 S
b0 !#
b10110 n
b10110 o"
b10110 \
b10110 r"
b1000000000110010 K
b1 F
bx U
bx V
b10000 f
b111 p"
b1010 J
b0 N
b1011 z"
b10100 u"
b1000000000110010 k
b1000000000110010 }"
b1000000000110010 %#
b0 $#
b1010 ##
bx O
bx *#
b11 .#
bx P
bx )#
b1 -#
b10100 u
b10100 ;"
b10100 W"
b10100 <"
b10010 v
b1 k"
b11 S"
b11 O"
b1 T"
b110011 y
b10010 9"
b10000 6"
b11 F"
b1 E"
b10000 :"
b1110 $
b1110 n"
b1110 7"
b1010 4"
b0 /
b0 <
b0 V"
b0 G"
b10110 5"
b1100 8"
1p
#11500
0p
#12000
b0 |"
1!
b1 6
b1 7
b1 5
b0 Q
b1 Z
b0 e
b0 T
b0 d
19
b1011 {"
b1011 s"
bx0000xxx00110011 M
bx0000xxx00110011 "#
b0 1
b0 H
b0 l
b0 m
b1 r
b1 '#
b10 q
b10 (#
b10110 n
b10110 o"
b110011 o
b110011 ,#
bx0000xxx00110011 S
bx !#
b10000111xxxxxxxx R
1"
1g
0h
b0 ^
b10 D
b1 Y
b10 X
b0 W
b0 E
b10010 f
b1000 p"
b110011 J
bx N
b10 F
b0 U
b100100000 K
b11000 \
b11000 r"
b11000 5"
b1110 8"
b10010 :"
b1 s
b1 U"
b1 +#
b10000 $
b10000 n"
b10000 7"
b110011 4"
bx /
bx <
bx V"
bx %
bx l"
bx j"
bx b
bx d"
0K"
bx G"
b10 k"
b0 O"
b10 T"
b11 y
b10100 9"
b10010 6"
b0 F"
b10 E"
b10110 <"
b10100 v
b10110 u
b10110 ;"
b10110 W"
b1010 O
b1010 *#
b0 .#
b10 -#
b1000011101100000 c
b1000011101100000 ~"
b1000011101100000 &#
b100100000 k
b100100000 }"
b100100000 %#
bx $#
b1011 ##
b10110 u"
b1100 z"
1p
#12500
0p
#13000
bx |"
bx Q
bx e
bx T
bx d
bx 1
bx H
b1100 {"
b1100 s"
b11000 n
b11000 o"
bx l
bx m
b11 M
b11 "#
bx R
b0 6
b0 7
b0 5
bx I
b11 o
b11 ,#
b11 S
b0 !#
b110011 V
bx U
b0 Z
b10100 f
b1001 p"
b11 J
b0 N
b1101 z"
bx c
bx ~"
bx &#
b1000000010100000 k
b1000000010100000 }"
b1000000010100000 %#
b0 $#
b110011 P
b110011 )#
bx O
bx *#
b10 .#
b1 -#
b1 _"
b1 `"
1Q"
b10 F"
b1 E"
b1 N"
b100100000 X"
b1 ]"
b10100 :"
b10 s
b10 U"
b10 +#
b10010 $
b10010 n"
b10010 7"
b11 4"
b0 /
b0 <
b0 V"
xK"
b0 G"
b1000011101100000 H"
b10000 8"
1p
#13500
0p
#14000
0!
b1 |"
b11 Q
b11 e
08
b1101 {"
b1101 s"
bx0000xxx00000011 M
bx0000xxx00000011 "#
09
b11 T
b11 d
b0 r
b0 '#
b0 q
b0 (#
b11010 n
b11010 o"
bx0000xxx00000011 S
bx !#
b0 6
b0 7
b0 5
b110011 I
b11 1
b11 H
0"
0g
1h
b1000 ^
b1010 D
b0 Y
b1010 X
b1000011100000000 R
0;
bx N
0B
b0 F
b110011 m
b11 l
b0 Z
b1000000010100000 K
b11 U
b11010 \
b11010 r"
b11010 5"
bx H"
b10010 8"
bx /
bx <
bx V"
1t
0K"
bx G"
b0 k"
b10 S"
b1 O"
b0 T"
b10010 y
0,"
10"
b10110 9"
b10100 6"
b0 N"
b0 ]"
b11000 <"
b10110 v
b0 `"
b11000 u
b11000 ;"
b11000 W"
b0 _"
b11 O
b11 *#
b1000011101100000 c
b1000011101100000 ~"
b1000011101100000 &#
bx $#
b1100 ##
b11000 u"
b1110 z"
1p
#14500
0p
#15000
b0 |"
b0 Q
b0 e
b0 T
b0 d
b1 r
b1 '#
b11 q
b11 (#
b0 1
b0 H
b0 l
b0 I
bx00110000 M
bx00110000 "#
b1110 {"
b1110 s"
bx00000000 R
b10 D
b11 Y
b10 X
b1 W
b1 E
b110000 o
b110000 ,#
bx00110000 S
b11100 n
b11100 o"
b11100 \
b11100 r"
b1000001100100001 K
b0 m
b0 U
b0 V
1;
b10110 f
b1010 p"
b110000 J
1B
b1111 z"
b11010 u"
bx c
bx ~"
bx &#
b1000001100100001 k
b1000001100100001 }"
b1000001100100001 %#
b1 $#
b1101 ##
b1010 O
b1010 *#
b0 .#
b1010 P
b1010 )#
b0 -#
b11010 u
b11010 ;"
b11010 W"
b11010 <"
b11000 v
b1010 S"
b0 O"
b1010 y
1,"
00"
b11000 9"
b10110 6"
0Q"
b0 F"
b0 E"
b10110 :"
b0 s
b0 U"
b0 +#
0-"
11"
b10100 $
b10100 n"
b10100 7"
b110000 4"
b110011 b
b110011 d"
0t
xK"
b11 G"
b11100 5"
b1000011101100000 H"
1p
#15500
0p
#16000
bx |"
bx Q
bx e
bx T
bx d
b1111 {"
b1111 s"
bx 1
bx H
bx l
bx m
b110011 I
b1010 M
b1010 "#
b11110 n
b11110 o"
b1010 o
b1010 ,#
b0 !#
b1010 S
b1000011000000000 R
0h
1i
b1001 ^
b1 D
b1 X
b11000 f
b1011 p"
b1010 J
b0 N
b1 F
bx U
b110011 V
b1001001100010001 K
b11110 \
b11110 r"
b11110 5"
bx H"
b10100 8"
b11000 :"
1-"
01"
b10110 $
b10110 n"
b10110 7"
b1010 4"
b0 /
b0 <
b0 V"
b0 %
b0 l"
b0 j"
b0 b
b0 d"
1K"
b0 G"
b1 k"
b10 S"
b11 O"
b1 T"
b110010 y
b11010 9"
b11000 6"
b11 F"
b1 E"
b11100 <"
b11010 v
b11100 u
b11100 ;"
b11100 W"
bx O
bx *#
b11 .#
b110011 P
b110011 )#
b1 -#
b1000011001010000 c
b1000011001010000 ~"
b1000011001010000 &#
b1001001100010001 k
b1001001100010001 }"
b1001001100010001 %#
b0 $#
b1110 ##
b11100 u"
b10000 z"
1p
#16500
0p
#17000
1j
1L
1@
b10 r
b10 '#
b0 q
b0 (#
bx0000xxx00110010 M
bx0000xxx00110010 "#
b10000 {"
b10000 s"
b1000011100000000 R
1h
0i
b1000 ^
b0 D
b0 Y
b0 X
b10 W
b10 E
b110010 o
b110010 ,#
bx0000xxx00110010 S
bx !#
b100000 n
b100000 o"
b100000 \
b100000 r"
b1000000000000010 K
b11010 f
b1100 p"
b110010 J
bx N
b10001 z"
b11110 u"
b1000011101100000 c
b1000011101100000 ~"
b1000011101100000 &#
b1000000000000010 k
b1000000000000010 }"
b1000000000000010 %#
bx $#
b1111 ##
b11110 u
b11110 ;"
b11110 W"
b11110 <"
b11100 v
b1 S"
b110001 y
1*"
0,"
b11100 9"
b11010 6"
b11010 :"
b1 s
b1 U"
b1 +#
b11000 $
b11000 n"
b11000 7"
b110010 4"
bx /
bx <
bx V"
b110011 %
b110011 l"
b110011 j"
b110011 b
b110011 d"
0K"
bx G"
b100000 5"
b1000011001010000 H"
b10110 8"
1p
#17500
0p
#18000
b0 |"
b0 Q
b0 e
b0 T
b0 d
b10001 {"
b10001 s"
b11000100110010 o
b11000100110010 ,#
b0 1
b0 H
b0 l
b0 m
b11 I
bx00110010 M
bx00110010 "#
b1 q
b1 (#
b100010 n
b100010 o"
b11000100110010 J
bx00110010 S
bx00000000 R
0h
1i
b1001 ^
b1 Y
b11100 f
b1101 p"
b10 F
b0 U
b11 V
b1001000100000010 K
b100010 \
b100010 r"
b100010 5"
b1000011101100000 H"
b11000 8"
b11100 :"
1+"
0-"
b11010 $
b11010 n"
b11010 7"
b11000100110011 4"
xK"
b10 k"
b0 S"
b0 O"
b10 T"
b0 y
0*"
1,"
b11110 9"
b11100 6"
b0 F"
b10 E"
b100000 <"
b11110 v
b100000 u
b100000 ;"
b100000 W"
b1010 O
b1010 *#
b0 .#
b11 P
b11 )#
b10 -#
bx c
bx ~"
bx &#
b1001000100000010 k
b1001000100000010 }"
b1001000100000010 %#
b10000 ##
b100000 u"
b10010 z"
1p
#18500
0p
#19000
1j
b1100010011001 |"
b11000100110010 Q
b11000100110010 e
1L
1@
b11000100110010 T
b11000100110010 d
b11 r
b11 '#
b0 q
b0 (#
b11000100110010 1
b11000100110010 H
b11000100110010 l
b11000100110010 m
b0 M
b0 "#
b10010 {"
b10010 s"
1h
0i
b1000 ^
b1 D
b0 Y
b1 X
b11 W
b11 E
b0 o
b0 ,#
b0 S
b0 !#
b100100 n
b100100 o"
b100100 \
b100100 r"
b1000000000010011 K
b11000100110010 U
b0 J
b11110 f
b1110 p"
b0 N
b10011 z"
b100010 u"
b1000000000010011 k
b1000000000010011 }"
b1000000000010011 %#
b0 $#
b10001 ##
b11000100110010 O
b11000100110010 *#
b1 .#
b100010 u
b100010 ;"
b100010 W"
b100010 <"
b100000 v
b1 O"
b10000 y
1*"
0,"
b100000 9"
b11110 6"
b1 F"
b11110 :"
b10 s
b10 U"
b10 +#
0+"
1-"
b11100 $
b11100 n"
b11100 7"
b0 4"
b0 /
b0 <
b0 V"
b11 %
b11 l"
b11 j"
b11 b
b11 d"
b0 G"
b100100 5"
bx H"
b11010 8"
1p
#19500
0p
#20000
b0 |"
b0 Q
b0 e
b1000000000000 M
b1000000000000 "#
b0 T
b0 d
b10011 {"
b10011 s"
b1000000000000 o
b1000000000000 ,#
b1000000000000 S
b0 1
b0 H
b0 l
b0 m
bx I
b1 q
b1 (#
b100110 n
b100110 o"
b1000000000000 J
b1100010011001 !#
b10000111xxxxxxxx R
0h
1i
b1001 ^
b0 D
b1 Y
b0 X
b100000 f
b1111 p"
b11000100110010 N
b11 F
b0 U
bx V
b1001000100000011 K
b100110 \
b100110 r"
b100110 5"
b11100 8"
b100000 :"
1+"
0-"
b11110 $
b11110 n"
b11110 7"
b1000000000011 4"
b11000100110010 /
b11000100110010 <
b11000100110010 V"
0K"
b11000100110010 G"
b11 k"
b1 S"
b0 O"
b11 T"
b1 y
0*"
1,"
b100010 9"
b100000 6"
b0 F"
b11 E"
b100100 <"
b100010 v
b100100 u
b100100 ;"
b100100 W"
b1010 O
b1010 *#
b0 .#
bx P
bx )#
b11 -#
b1000011101100000 c
b1000011101100000 ~"
b1000011101100000 &#
b1001000100000011 k
b1001000100000011 }"
b1001000100000011 %#
b1100010011001 $#
b10010 ##
b100100 u"
b10100 z"
1p
#20500
0p
#21000
b1 6
b1 7
b1 5
b1 Z
b1100010011001 |"
b11000100110010 Q
18
b11000100110010 e
0L
0@
1!
1?
b11000100110010 T
b11000100110010 d
1-
b1 r
b1 '#
b11 q
b11 (#
b11000100110010 1
b11000100110010 H
b11000100110010 l
b11000100110010 m
b1 M
b1 "#
b10011 {"
b10011 s"
bx R
0i
b1111 ^
b1 D
b11 Y
b1 X
b1 W
b1 E
b1 o
b1 ,#
b1 S
b0 !#
b100110 n
b100110 o"
b101000 \
b101000 r"
b1111001100010001 K
b11000100110010 U
b1 J
b100010 f
b10000 p"
b0 N
b10101 z"
b100110 u"
bx c
bx ~"
bx &#
b1111001100010001 k
b1111001100010001 }"
b1111001100010001 %#
b0 $#
b10011 ##
b11000100110010 O
b11000100110010 *#
b1 .#
b100110 u
b100110 ;"
b100110 W"
b100110 <"
b100100 v
b0 S"
b1 O"
b10000 y
1*"
0,"
b100100 9"
b100010 6"
b1 F"
b100010 :"
b11 s
b11 U"
b11 +#
0+"
1-"
b100000 $
b100000 n"
b100000 7"
b1 4"
b0 /
b0 <
b0 V"
bx %
bx l"
bx j"
bx b
bx d"
b0 G"
b101000 5"
b1000011101100000 H"
b11110 8"
1p
#21500
0p
#22000
b100000000000 |"
b1000000000001 Q
b1000000000001 e
b1000000000001 T
b1000000000001 d
b10100 {"
b10100 s"
b1000000000001 M
b1000000000001 "#
b1000000000001 1
b1000000000001 H
b101000 n
b101000 o"
b1000000000001 o
b1000000000001 ,#
b1000000000001 S
b1 m
b1000000000001 J
b1100010011001 !#
b1000000000001 l
b0 6
b0 7
b0 5
b1 I
b1000011100000000 R
b100100 f
b10001 p"
b11000100110010 N
b0 Z
b1 U
b11000100110010 V
bx H"
b100000 8"
b100100 :"
1+"
0-"
b100010 $
b100010 n"
b100010 7"
b10000xxxxxxxx 4"
b11000100110010 /
b11000100110010 <
b11000100110010 V"
b11000100110010 G"
1P"
b11 F"
b1 E"
b1 N"
b1111001100010001 X"
b1 ]"
b1 `"
b1 _"
b1 O
b1 *#
b11 .#
b11000100110010 P
b11000100110010 )#
b1 -#
b1000011101100000 c
b1000011101100000 ~"
b1000011101100000 &#
b1111001000000000 k
b1111001000000000 }"
b1111001000000000 %#
b1100010011001 $#
b10110 z"
1p
#22500
0p
